Delta-Science-Blog - A Shortcut To Deep SQL Coding
…
From the display of the sample information, there are around 6900 records listed across 8 columns. Additionally, there is a TIMESTAMP field that indicates when the API query was run, and an ID_LOC field displaying the location identifier for which weather details were obtained (three places in total: id1, id2, id3).

First SQL Translation

To get a better undertstanding of the data, let’s ask some questions regarding the scope of the demo data: How often was the API request run for each location and how many days are present in the TIMESTAMP column?

d_source %>% 
  count(TIMESTAMP, ID_LOC) %>% 
  mutate(prop = n/sum(n)) %>% 
  arrange(ID_LOC, TIMESTAMP) %>% 
  print(n=12) # restricting the output to the first 12 rows

# A tibble: 36 × 4
#   TIMESTAMP           ID_LOC     n   prop
#    <dttm>              <chr>  <int>  <dbl>
#  1 2023-04-23 05:57:35 id1      192 0.0278
#  2 2023-04-23 11:57:35 id1      192 0.0278
#  3 2023-04-23 17:57:35 id1      192 0.0278
#  4 2023-04-23 23:57:36 id1      192 0.0278
#  5 2023-04-24 05:57:36 id1      192 0.0278
#  6 2023-04-24 11:57:36 id1      192 0.0278
#  7 2023-04-24 17:57:36 id1      192 0.0278
#  8 2023-04-24 23:57:36 id1      192 0.0278
#  9 2023-04-25 05:57:37 id1      192 0.0278
# 10 2023-04-25 11:57:37 id1      192 0.0278
# 11 2023-04-25 17:57:37 id1      192 0.0278
# 12 2023-04-25 23:57:37 id1      192 0.0278
# # ℹ 24 more rows
…
